Read an XLSForm file — read_xlsform • idem
…
    Examples

path <- system.file("extdata/form.xlsx", package = "idem")

# Read the default sheets (survey + choices)
form <- read_xlsform(path)
form
#> <xlsform> /home/runner/work/_temp/Library/idem/extdata/form.xlsx
#> • survey: 710 rows
#> • choices: 3714 rows

# Inspect the survey sheet directly
form$survey
#> # A tibble: 710 × 23
#>    level      req theme module indicator index type  name  `label::english (en)`
#>    <chr>    <dbl> <chr> <chr>  <chr>     <dbl> <chr> <chr> <chr>                
#>  1 metadata     1 Meta… NA     NA           NA audit audit NA                   
#>  2 metadata     1 Meta… NA     NA           NA start start NA                   
#>  3 metadata     1 Meta… NA     NA           NA end   end   NA                   
#>  4 metadata     1 Meta… NA     NA           NA today today NA                   
#>  5 metadata     1 Meta… NA     NA           NA devi… devi… NA                   
#>  6 metadata     1 Meta… NA     NA           NA calc… inst… NA                   
#>  7 main         1 Intr… NA     NA           NA begi… intr… Introduction         
#>  8 main         1 Intr… Inter… % of int…     1 sele… surv… Survey modality      
#>  9 main         1 Intr… Inter… For data…     2 sele… enum… Enumerator id        
#> 10 main         0 Intr… Inter… % of int…     3 sele… enum… What is the enumerat…
#> # ℹ 700 more rows
#> # ℹ 14 more variables: `label::french (fr)` <chr>, `hint::english (en)` <chr>,
#> #   `hint::french (fr)` <chr>, calculation <chr>, required <lgl>,
#> #   relevant <chr>, constraint <chr>, default <lgl>, repeat_count <chr>,
#> #   `constraint_message::english (en)` <chr>,
#> #   `constraint_message::french (fr)` <chr>, appearance <chr>,
#> #   choice_filter <chr>, parameters <chr>
…
