…
## Examples

``` r
path <- system.file("extdata/form.xlsx", package = "idem")

# Read the default sheets (survey + choices)
form <- read_xlsform(path)
form
#> <xlsform> /home/runner/work/_temp/Library/idem/extdata/form.xlsx
#> • survey: 710 rows
#> • choices: 3726 rows

# Inspect the survey sheet directly
form$survey
#> # A tibble: 710 × 24
#>    level      req  hnrp theme        module          indicator index type  name 
#>    <chr>    <dbl> <dbl> <chr>        <chr>           <chr>     <dbl> <chr> <chr>
#>  1 metadata     1     0 Metadata     NA              NA           NA audit audit
#>  2 metadata     1     0 Metadata     NA              NA           NA start start
#>  3 metadata     1     0 Metadata     NA              NA           NA end   end  
#>  4 metadata     1     0 Metadata     NA              NA           NA today today
#>  5 metadata     1     0 Metadata     NA              NA           NA devi… devi…
#>  6 metadata     1     0 Metadata     NA              NA           NA calc… inst…
#>  7 main         1     0 Introduction NA              NA           NA begi… intr…
#>  8 main         1     1 Introduction Interview deta… % of int…     1 sele… surv…
#>  9 main         1     1 Introduction Interview deta… For data…     2 sele… enum…
#> 10 main         0     1 Introduction Interview deta… % of int…     3 sele… enum…
#> # ℹ 700 more rows
#> # ℹ 15 more variables: `label::english (en)` <chr>, `label::french (fr)` <chr>,
#> #   `hint::english (en)` <chr>, `hint::french (fr)` <chr>, calculation <chr>,
#> #   required <lgl>, relevant <chr>, constraint <chr>, default <lgl>,
#> #   repeat_count <chr>, `constraint_message::english (en)` <chr>,
#> #   `constraint_message::french (fr)` <chr>, appearance <chr>,
#> #   choice_filter <chr>, parameters <chr>
…
