…
# No issues: all lists defined in target's choices are also defined in dev
validate_list_names(target, target)
#> # A tibble: 0 × 5
#> # ℹ 5 variables: check <chr>, severity <chr>, name <chr>, list_name <chr>,
#> #   detail <chr>

# Issues found: dev has no choice lists at all, but target defines some
dev_empty_choices <- xlsform(
  survey  = target$survey,
  choices = data.frame(list_name = character(), name = character())
)
validate_list_names(target, dev_empty_choices)
#> # A tibble: 174 × 5
#>    check      severity name               list_name detail                      
#>    <chr>      <chr>    <chr>              <chr>     <chr>                       
#>  1 list_names error    l_survey_modality  NA        List 'l_survey_modality' is…
#>  2 list_names error    l_enum_id          NA        List 'l_enum_id' is defined…
#>  3 list_names error    l_gender           NA        List 'l_gender' is defined …
#>  4 list_names error    l_admin3           NA        List 'l_admin3' is defined …
#>  5 list_names error    l_admin4           NA        List 'l_admin4' is defined …
#>  6 list_names error    l_cluster_id       NA        List 'l_cluster_id' is defi…
#>  7 list_names error    l_yn               NA        List 'l_yn' is defined in t…
#>  8 list_names error    l_yn_dnk_pnta      NA        List 'l_yn_dnk_pnta' is def…
#>  9 list_names error    l_hoh_civil_status NA        List 'l_hoh_civil_status' i…
#> 10 list_names error    l_setting          NA        List 'l_setting' is defined…
#> # ℹ 164 more rows
```
