…
# Issues found: dev's survey has all select questions replaced by text,
# so none of target's referenced lists appear in dev's survey
dev_no_selects <- xlsform(
  survey = data.frame(
    type = rep("text", nrow(target$survey)),
    name = target$survey$name
  ),
  choices = target$choices
)
validate_survey_list_names(target, dev_no_selects)
#> # A tibble: 171 × 5
#>    check             severity name               list_name detail               
#>    <chr>             <chr>    <chr>              <chr>     <chr>                
#>  1 survey_list_names error    l_survey_modality  NA        List 'l_survey_modal…
#>  2 survey_list_names error    l_enum_id          NA        List 'l_enum_id' is …
#>  3 survey_list_names error    l_gender           NA        List 'l_gender' is r…
#>  4 survey_list_names error    l_admin1           NA        List 'l_admin1' is r…
#>  5 survey_list_names error    l_admin2           NA        List 'l_admin2' is r…
#>  6 survey_list_names error    l_admin3           NA        List 'l_admin3' is r…
#>  7 survey_list_names error    l_admin4           NA        List 'l_admin4' is r…
#>  8 survey_list_names error    l_cluster_id       NA        List 'l_cluster_id' …
#>  9 survey_list_names error    l_yn               NA        List 'l_yn' is refer…
#> 10 survey_list_names error    l_hoh_civil_status NA        List 'l_hoh_civil_st…
#> # ℹ 161 more rows
```
